{
  "scope": "G",
  "version": 1,
  "restricted": false,
  "overridable": true,
  "files": [
    "data.bin"
  ],
  "attributes": {
    "lastModification": {
      "actor": "joyja",
      "timestamp": "2021-01-11T21:56:00Z"
    },
    "lastModificationSignature": "191a099844d22d899eaabbacd1c84547bf3749ca7884e34e65e6e5d4fa6daf61"
  }
}